…
``` r
URL_untidy <- "https://docs.google.com/spreadsheets/d/1QG_9gkWtciEmHggb6BjLg-6hF9FyekzKN9cLjyteh00/edit#gid=1469251738&fvid=2032560885"

df <- read_sheet(URL_untidy, sheet = 1, range = "B3:Z123")
```

    ## ✔ Reading from "Untidy Excel table".

    ## ✔ Range ''Top 20 Vendors'!B3:Z123'.

``` r
df
```

    ## # A tibble: 120 × 25
    ##    Date     Year Month Alcatel Apple  Asus   BBK Blackberry Gener…¹ Google   HTC
    ##    <chr>   <dbl> <chr>   <dbl> <dbl> <dbl> <dbl>      <dbl>   <dbl>  <dbl> <dbl>
    ##  1 2010-07  2010 Jul         0  30.1     0     0       19.0       0  0.21   0.07
    ##  2 2010-08  2010 Aug         0  29.8     0     0       19.7       0  0.19   0.07
    ##  3 2010-09  2010 Sep         0  26.7     0     0       21.0       0  0.17   0.06
    ##  4 2010-10  2010 Oct         0  26.5     0     0       21.5       0  0.16   0.05
    ##  5 2010-11  2010 Nov         0  25.7     0     0       22.6       0  0.150  0.04
    ##  6 2010-12  2010 Dec         0  28.0     0     0       21.5       0  0.15   0.04
    ##  7 2011-01  2011 Jan         0  30.2     0     0       18.2       0  0.14   0.09
    ##  8 2011-02  2011 Feb         0  29.8     0     0       17.6       0  0.13   0.15
    ##  9 2011-03  2011 Mar         0  29.8     0     0       17.2       0  0.13   0.17
    ## 10 2011-04  2011 Apr         0  28.6     0     0       16.6       0  0.11   0.18
    ## # … with 110 more rows, 14 more variables: Huawei <dbl>, Lenovo <dbl>,
    ## #   LG <dbl>, Micromax <dbl>, Mobicel <dbl>, Motorola <dbl>, Nokia <dbl>,
    ## #   Oppo <dbl>, Samsung <dbl>, Sony <dbl>, Xiaomi <dbl>, ZTE <dbl>,
    ## #   Other <dbl>, Unknown <dbl>, and abbreviated variable name ¹​`General Mobile`
…
``` r
df <- df |> 
  pivot_longer(
    cols      = 4:ncol(df),
    names_to  = "Vendor",
    values_to = "Market Share"
  )

df
```

    ## # A tibble: 2,640 × 5
    ##    Date     Year Month Vendor         `Market Share`
    ##    <chr>   <dbl> <chr> <chr>                   <dbl>
    ##  1 2010-07  2010 Jul   Alcatel                  0   
    ##  2 2010-07  2010 Jul   Apple                   30.1 
    ##  3 2010-07  2010 Jul   Asus                     0   
    ##  4 2010-07  2010 Jul   BBK                      0   
    ##  5 2010-07  2010 Jul   Blackberry              19.0 
    ##  6 2010-07  2010 Jul   General Mobile           0   
    ##  7 2010-07  2010 Jul   Google                   0.21
    ##  8 2010-07  2010 Jul   HTC                      0.07
    ##  9 2010-07  2010 Jul   Huawei                   0   
    ## 10 2010-07  2010 Jul   Lenovo                   0   
    ## # … with 2,630 more rows
…
